R for babies - 4 Làm sạch
…
2 bảng cần nối

các cột chung để nối bằng lệnh join_by (R mặc định nối 2 bảng bằng cột có tên giống nhau)

Tổng hợp các lệnh join cùng GIF minh hoạ

mt <- read_excel(path = "data/gdp-capita.xlsx", sheet = 2) %>% 
  clean_names()

# --- Nối 2 bảng bằng lệnh left_join
# Trong trường hợp này, tuy lệnh join_by không cần thiết nhưng có thể giúp cho code rõ ràng hơn 
left_join(df, mt, by = join_by(country_code == country_code))

# A tibble: 2,128 × 8
   country_name      country_code year     gdp region income_group special_notes
   <chr>             <chr>        <chr>  <dbl> <chr>  <chr>        <chr>        
 1 Aruba             ABW          2015  28419. Latin… High income  <NA>         
 2 Aruba             ABW          2016  28450. Latin… High income  <NA>         
 3 Aruba             ABW          2017  29329. Latin… High income  <NA>         
 4 Aruba             ABW          2018  30918. Latin… High income  <NA>         
 5 Aruba             ABW          2019  31903. Latin… High income  <NA>         
 6 Aruba             ABW          2020  24008. Latin… High income  <NA>         
 7 Aruba             ABW          2021  29128. Latin… High income  <NA>         
 8 Aruba             ABW          2022  33301. Latin… High income  <NA>         
 9 Africa Eastern a… AFE          2015   1554. <NA>   <NA>         26 countries…
10 Africa Eastern a… AFE          2016   1444. <NA>   <NA>         26 countries…
# ℹ 2,118 more rows
# ℹ 1 more variable: table_name <chr>
…
