R for babies - 3 Nhập môn R
…
VD1: Cần tìm kiếm thông tin cho những ai có tên là Thịnh/Hằng/Diễm

Chọn câu lệnh: cần tìm theo tên –> cần kiểm tra chữ cuối trong string ->dùng lệnh str_ends

Quy định pattern bằng regex: cần string khớp với 1 trong các tên nêu trên -> áp dụng Nhóm

practising_cert_df %>% 
  filter( # gọi filter để lọc 
    str_ends( # gọi lệnh str_ends để kiểm tra các ký tự cuối của string 
      HoTen, # cần kiểm tra cột HoTen
      "(Thịnh|Hằng|Diễm)" # quy định pattern cần khớp
      )
  ) 

# A tibble: 920 × 9
   HoTen               TenQuocTich SoChungChi NoiCapChungChi NgayCapChungChi    
   <chr>               <chr>       <chr>      <chr>          <dttm>             
 1 Nguyễn Thị Thu Hằng Việt Nam    000092/ĐT… 4              2012-04-26 00:00:00
 2 La Hằng             Việt Nam    000119/HC… 4              2012-04-23 00:00:00
 3 Nguyễn Văn Thịnh    Việt Nam    000152/HC… 4              2012-04-23 00:00:00
 4 Phan Thị Thúy Diễm  None        0001586/K… 32             2013-12-12 00:00:00
 5 Lê Thị Thu Hằng     Việt Nam    0002257/Q… 4              2015-11-20 00:00:00
 6 Nguyễn Thị Thúy Hằ… Việt Nam    0002562/Q… 50             2016-01-22 00:00:00
 7 Nguyễn Thị Thúy Di… None        0003849/Đ… 23             2014-11-19 00:00:00
 8 Lê Ngọc Thịnh       Việt Nam    0004194/K… 32             2015-09-29 00:00:00
 9 Nguyễn Đức Thịnh    Việt Nam    0004235/Đ… 4              2014-06-08 00:00:00
10 Huỳnh Thị Hằng      Việt Nam    0004402/B… 12             2015-01-15 00:00:00
# ℹ 910 more rows
# ℹ 4 more variables: TenPhamViHoatDong <chr>, TinhTrang <chr>, TenCoSo <chr>,
#   DiaChiCS <chr>
…
practising_cert_df %>% 
  mutate(
    # chuyển thành in thường để tránh các tình trạng không khớp vì khác case
    TenPhamViHoatDong = tolower(TenPhamViHoatDong)
  ) %>% 
  filter(
    str_detect(
      TenPhamViHoatDong, 
      "(răng hàm mặt|mắt)"
    )
  ) %>% 
  select(HoTen, TenPhamViHoatDong)

# A tibble: 2,575 × 2
   HoTen                     TenPhamViHoatDong                             
   <chr>                     <chr>                                         
 1 Trần Thị Phương Thu       khám bệnh, chữa bệnh chuyên khoa mắt.         
 2 Nguyễn Thái Thảo Nguyên   khám bệnh, chữa bệnh chuyên khoa răng hàm mặt.
 3 Đoàn Thị Thùy Trang       khám bệnh, chữa bệnh chuyên khoa răng hàm mặt.
 4 Ngô Ngọc Liêm             khám bệnh, chữa bệnh chuyên khoa mắt.         
 5 Ngô Ngọc Liêm             khám bệnh, chữa bệnh chuyên khoa mắt.         
 6 Trần Thu Trang            khám bệnh, chữa bệnh chuyên khoa răng hàm mặt.
 7 Phạm Bảo Chung            khám bệnh, chữa bệnh chuyên khoa răng hàm mặt.
 8 Võ Văn Minh Hoài          khám bệnh, chữa bệnh chuyên khoa răng hàm mặt.
 9 Nguyễn Thành Tung Ái Quốc khám bệnh, chữa bệnh chuyên khoa mắt.         
10 Đoàn Thị Thúy Hòa         khám bệnh, chữa bệnh chuyên khoa răng hàm mặt.
# ℹ 2,565 more rows
…
Cần lấy ngày hiện tại để tính toán –> dùng lệnh today()

Cần tính khoảng thời gian từ lúc cấp chứng chỉ đến hiện tại -> dùng lệnh difftime() với unit là days (difftime không có unit year) sau đó chia cho 365

hoặc dùng lệnh year để lấy năm của 2 mốc thời gian rồi trừ nhau

# --- Cách 1
practising_cert_df %>% 
  filter(
    # gọi difftime để tính khoảng cách thời gian
    difftime(today(), NgayCapChungChi, units = "days")/365 <= 5
  )

# A tibble: 44 × 9
   HoTen               TenQuocTich SoChungChi NoiCapChungChi NgayCapChungChi    
   <chr>               <chr>       <chr>      <chr>          <dttm>             
 1 Nguyễn Cẩm Tú       Việt Nam    001982/LA… 39             2019-09-27 00:00:00
 2 Nguyễn Hoàng Thùy … Việt Nam    0027044    4              2019-03-26 00:00:00
 3 NGUYỄN ĐĂNG GIÁP    None        003982/QB… 46             2019-09-15 00:00:00
 4 Nguyễn Thị Anh Thư  Việt Nam    004856/QN… 48             2019-04-16 00:00:00
 5 Nguyễn Thị Thanh H… Việt Nam    006349/BĐ… 12             2019-03-26 00:00:00
 6 Đỗ Thị Thái         Việt Nam    006353/BĐ… 12             2019-03-26 00:00:00
 7 Trần Thảo Quyên     Việt Nam    007945/ĐN… 3              2019-03-28 00:00:00
 8 Phan Thanh Duy      Việt Nam    008141/ĐL… 19             2019-05-18 00:00:00
 9 Quách Thị Bích Vân  Việt Nam    011513/ĐN… 22             2019-04-18 00:00:00
10 BISET JEAN-FRANCOI… Pháp        039596/BY… 64             2019-03-29 00:00:00
# ℹ 34 more rows
# ℹ 4 more variables: TenPhamViHoatDong <chr>, TinhTrang <chr>, TenCoSo <chr>,
#   DiaChiCS <chr>

# --- Cách 2
practising_cert_df %>% 
  filter(
    # Gọi year để lấy năm sau đó trừ nhau
    year(today()) - year(NgayCapChungChi)  <= 5
  )

# A tibble: 77 × 9
   HoTen               TenQuocTich SoChungChi NoiCapChungChi NgayCapChungChi    
   <chr>               <chr>       <chr>      <chr>          <dttm>             
 1 TRẦN QUỐC KHƯƠNG    Việt Nam    0003464/V… 61             2019-01-31 00:00:00
 2 Nguyễn Cẩm Tú       Việt Nam    001982/LA… 39             2019-09-27 00:00:00
 3 Nguyễn Hoàng Thùy … Việt Nam    0027044    4              2019-03-26 00:00:00
 4 Nguyễn Hoàng Anh Tú Việt Nam    003457/TV… 59             2019-01-25 00:00:00
 5 NGUYỄN ĐĂNG GIÁP    None        003982/QB… 46             2019-09-15 00:00:00
 6 Nguyễn Cảnh Lộc     Việt Nam    004854/GL… 24             2019-02-28 00:00:00
 7 Nguyễn Thị Anh Thư  Việt Nam    004856/QN… 48             2019-04-16 00:00:00
 8 Nguyễn Thị Thanh H… Việt Nam    006349/BĐ… 12             2019-03-26 00:00:00
 9 Đỗ Thị Thái         Việt Nam    006353/BĐ… 12             2019-03-26 00:00:00
10 Trần Hữu Nghĩa      Việt Nam    006869     47             2019-01-10 00:00:00
# ℹ 67 more rows
# ℹ 4 more variables: TenPhamViHoatDong <chr>, TinhTrang <chr>, TenCoSo <chr>,
#   DiaChiCS <chr>
…
